[
  {
    "pageNum": 1,
    "pageSize": 8,
    "size": 8,
    "startRow": 1,
    "endRow": 8,
    "total": 10,
    "pages": 2,
    "list": [{
            "oper": null,
            "search": null,
            "searchField": null,
            "searchString": null,
            "searchOper": null,
            "rows": null,
            "page": null,
            "order": null,
            "orderType": null,
            "filters": null,
            "id": 236,
            "beModel": null,
            "beFunction": null,
            "path": "D:\\ceshi\\tomcat-8.5.39-zsk\\webapps\\ROOT\\static\\upload\\20190918\\gene_por.xlsx",
            "name": "gene_por.xlsx",
            "url": "/static/upload/20190918/gene_por.xlsx",
            "source": null,
            "state": null,
            "operator": 1,
            "uploaddate": 1568775624000,
            "isDownload": 1,
            "searchdate": 1568775624000,
            "isDel": 1,
            "accessoryType": 3,
            "detailGroups": 0,
            "operatorNm": "administrator"
        }, {
            "oper": null,
            "search": null,
            "searchField": null,
            "searchString": null,
            "searchOper": null,
            "rows": null,
            "page": null,
            "order": null,
            "orderType": null,
            "filters": null,
            "id": 233,
            "beModel": null,
            "beFunction": null,
            "path": "E:\\work\\2019\\09\\zsk\\target\\zsk\\static\\upload\\20190912\\testd11fff1.doc",
            "name": "testd11fff1.doc",
            "url": "/static/upload/20190912/testd11fff1.doc",
            "source": null,
            "state": null,
            "operator": 1,
            "uploaddate": 1568268742000,
            "isDownload": 0,
            "searchdate": 1568268742000,
            "isDel": 1,
            "accessoryType": 3,
            "detailGroups": 2,
            "operatorNm": "administrator"
        }, {
            "oper": null,
            "search": null,
            "searchField": null,
            "searchString": null,
            "searchOper": null,
            "rows": null,
            "page": null,
            "order": null,
            "orderType": null,
            "filters": null,
            "id": 232,
            "beModel": null,
            "beFunction": null,
            "path": "E:\\work\\2019\\09\\zsk\\target\\zsk\\static\\upload\\20190912\\testd111.doc",
            "name": "testd111.doc",
            "url": "/static/upload/20190912/testd111.doc",
            "source": null,
            "state": null,
            "operator": 1,
            "uploaddate": 1568268703000,
            "isDownload": 0,
            "searchdate": 1568268703000,
            "isDel": 1,
            "accessoryType": 3,
            "detailGroups": 2,
            "operatorNm": "administrator"
        }, {
            "oper": null,
            "search": null,
            "searchField": null,
            "searchString": null,
            "searchOper": null,
            "rows": null,
            "page": null,
            "order": null,
            "orderType": null,
            "filters": null,
            "id": 230,
            "beModel": null,
            "beFunction": null,
            "path": "D:\\knowledge_zsk_new\\zsk\\target\\zsk\\static\\upload\\20190830\\SpringBoot.docx",
            "name": "SpringBoot.docx",
            "url": "/static/upload/20190830/SpringBoot.docx",
            "source": null,
            "state": null,
            "operator": 1,
            "uploaddate": 1567133424000,
            "isDownload": 0,
            "searchdate": 1567133424000,
            "isDel": 1,
            "accessoryType": 3,
            "detailGroups": 2,
            "operatorNm": "administrator"
        }, {
            "oper": null,
            "search": null,
            "searchField": null,
            "searchString": null,
            "searchOper": null,
            "rows": null,
            "page": null,
            "order": null,
            "orderType": null,
            "filters": null,
            "id": 228,
            "beModel": null,
            "beFunction": null,
            "path": "D:\\knowledge_zsk_new\\zsk\\target\\zsk\\static\\upload\\20190830\\20190304.txt",
            "name": "20190304.txt",
            "url": "/static/upload/20190830/20190304.txt",
            "source": null,
            "state": null,
            "operator": 1,
            "uploaddate": 1567133423000,
            "isDownload": 0,
            "searchdate": 1567133423000,
            "isDel": 1,
            "accessoryType": 3,
            "detailGroups": 2,
            "operatorNm": "administrator"
        }, {
            "oper": null,
            "search": null,
            "searchField": null,
            "searchString": null,
            "searchOper": null,
            "rows": null,
            "page": null,
            "order": null,
            "orderType": null,
            "filters": null,
            "id": 229,
            "beModel": null,
            "beFunction": null,
            "path": "D:\\knowledge_zsk_new\\zsk\\target\\zsk\\static\\upload\\20190830\\yaowu.xlsx",
            "name": "yaowu.xlsx",
            "url": "/static/upload/20190830/yaowu.xlsx",
            "source": null,
            "state": null,
            "operator": 1,
            "uploaddate": 1567133423000,
            "isDownload": 0,
            "searchdate": 1567133423000,
            "isDel": 1,
            "accessoryType": 3,
            "detailGroups": 2,
            "operatorNm": "administrator"
        }, {
            "oper": null,
            "search": null,
            "searchField": null,
            "searchString": null,
            "searchOper": null,
            "rows": null,
            "page": null,
            "order": null,
            "orderType": null,
            "filters": null,
            "id": 227,
            "beModel": null,
            "beFunction": null,
            "path": "D:\\knowledge_zsk_new\\zsk\\target\\zsk\\static\\upload\\20190829\\安装教程.txt",
            "name": "安装教程.txt",
            "url": "/static/upload/20190829/安装教程.txt",
            "source": null,
            "state": null,
            "operator": 1,
            "uploaddate": 1567061743000,
            "isDownload": 0,
            "searchdate": 1567061743000,
            "isDel": 1,
            "accessoryType": 3,
            "detailGroups": 1,
            "operatorNm": "administrator"
        }, {
            "oper": null,
            "search": null,
            "searchField": null,
            "searchString": null,
            "searchOper": null,
            "rows": null,
            "page": null,
            "order": null,
            "orderType": null,
            "filters": null,
            "id": 226,
            "beModel": null,
            "beFunction": null,
            "path": "D:\\knowledge_zsk_new\\zsk\\target\\zsk\\static\\upload\\20190829\\xiangmucankaoziliao.xlsx",
            "name": "xiangmucankaoziliao.xlsx",
            "url": "/static/upload/20190829/xiangmucankaoziliao.xlsx",
            "source": null,
            "state": null,
            "operator": 1,
            "uploaddate": 1567061677000,
            "isDownload": 1,
            "searchdate": 1567061677000,
            "isDel": 1,
            "accessoryType": 3,
            "detailGroups": 2,
            "operatorNm": "administrator"
        }
    ],
    "prePage": 0,
    "nextPage": 2,
    "isFirstPage": true,
    "isLastPage": false,
    "hasPreviousPage": false,
    "hasNextPage": true,
    "navigatePages": 8,
    "navigatepageNums": [1, 2],
    "navigateFirstPage": 1,
    "navigateLastPage": 2,
    "lastPage": 2,
    "firstPage": 1
}

]